%YAML 1.1
%TAG !u! tag:unity3d.com,2011:
--- !u!114 &11400000
MonoBehaviour:
  m_ObjectHideFlags: 0
  m_PrefabParentObject: {fileID: 0}
  m_PrefabInternal: {fileID: 0}
  m_GameObject: {fileID: 0}
  m_Enabled: 1
  m_EditorHideFlags: 0
  m_Script: {fileID: 11500000, guid: eef8d824ea7b63742966aaa0e94ac383, type: 3}
  m_Name: FMODStudioSettings
  m_EditorClassIdentifier: 
  HasSourceProject: 1
  HasPlatforms: 1
  SourceProjectPath: /Applications/FMOD Studio/SnowflakePianoFMOD/SnowflakePianoFMOD.fspro
  SourceBankPath: /Applications/FMOD Studio/SnowflakePianoFMOD/Build
  AutomaticEventLoading: 1
  AutomaticSampleLoading: 0
  SpeakerModeSettings:
  - Platform: 2
    Value: 3
  SampleRateSettings:
  - Platform: 2
    Value: 0
  LiveUpdateSettings:
  - Platform: 1
    Value: 1
  - Platform: 2
    Value: 1
  OverlaySettings:
  - Platform: 1
    Value: 1
  - Platform: 2
    Value: 0
  LoggingSettings:
  - Platform: 1
    Value: 1
  - Platform: 2
    Value: 0
  BankDirectorySettings:
  - Platform: 1
    Value: Desktop
  - Platform: 2
    Value: Desktop
  VirtualChannelSettings:
  - Platform: 2
    Value: 128
  RealChannelSettings:
  - Platform: 2
    Value: 32
  Plugins: []
  MasterBank: Master Bank
  Banks: []
